…
<!-- end list -->

``` r
# tidy text package
wine_words_df <- wine_df %>%
  unnest_tokens(word, description) %>%
  anti_join(stop_words, by = "word") %>%
  filter(!word %in% c("wine", "drink"),
         str_detect(word, "[a-z]"))

# check df 
wine_words_df
```

    ## # A tibble: 2,506,319 x 15
    ##    country designation points price province region_1 region_2 taster_name
    ##    <chr>   <chr>        <dbl> <dbl> <chr>    <chr>    <chr>    <chr>      
    ##  1 Portug~ Avidagos        87    15 Douro    <NA>     <NA>     Roger Voss 
    ##  2 Portug~ Avidagos        87    15 Douro    <NA>     <NA>     Roger Voss 
    ##  3 Portug~ Avidagos        87    15 Douro    <NA>     <NA>     Roger Voss 
    ##  4 Portug~ Avidagos        87    15 Douro    <NA>     <NA>     Roger Voss 
    ##  5 Portug~ Avidagos        87    15 Douro    <NA>     <NA>     Roger Voss 
    ##  6 Portug~ Avidagos        87    15 Douro    <NA>     <NA>     Roger Voss 
    ##  7 Portug~ Avidagos        87    15 Douro    <NA>     <NA>     Roger Voss 
    ##  8 Portug~ Avidagos        87    15 Douro    <NA>     <NA>     Roger Voss 
    ##  9 Portug~ Avidagos        87    15 Douro    <NA>     <NA>     Roger Voss 
    ## 10 Portug~ Avidagos        87    15 Douro    <NA>     <NA>     Roger Voss 
    ## # ... with 2,506,309 more rows, and 7 more variables:
    ## #   taster_twitter_handle <chr>, title <chr>, year <int>, variety <chr>,
    ## #   winery <chr>, wine_id <int>, word <chr>
…
